{
  "sites": {
"星空影视":{"url":"https://xkys.tv/xgapp.php/v1/","jx":[]},
"天空影视":{"url":"https://tkys.tv/xgapp.php/v1/"},
"天空影视V2":{"url":"https://www.tkys.tv/xgapp.php/v2/"},
"迪迪影院V2":{"url":"http://dd88.icu:6080/xgapp.php/v2/"},
"饭团影视":{"url":"http://television.wkfile.com/api.php/app/"},
"苍蓝资源":{"url":"https://vip.ruifenglb.com:4433/api.php/app/"},
"灵狐影视":{"url":"http://x.dmntv.com/api.php/app/"},
"手指影视":{"url":"https://szys5678.com/mogai_api.php/v1.vod"},
"1080p":{"url":"https://1080p.one/mogai_api.php/v1.vod"},
"1231D":{"url":"https://vue.app.yunboys.cn/api.php/v1.vod"},
"300看世界":{"url":"https://300ys.xyz/api.php/v1.vod"},
"4K影院":{"url":"http://1api.4kdytv.com/api.php/v1.vod"},
"80K影视":{"url":"https://1080p.tv/api.php/v1.vod"},
"CJT影院":{"url":"https://www.cjt521.com/api.php/v1.vod"},
"DC影视":{"url":"http://chaorenbb.com/api.php/v1.vod"},
"F7高清":{"url":"http://bc.haokanju1.cc/lvdou_api.php/v1.vod"},
"HG影视":{"url":"http://hgyx.vip/api.php/v1.vod"},
"l0l影院":{"url":"https://l0l.tv/api.php/v1.vod"},
"爱看美剧":{"url":"https://www.uumjw.com/api.php/v1.vod"},
"爱酷影视":{"url":"https://www.zhanlangbu.com/ruifenglb_api.php/v1.vod"},
"爱看影院":{"url":"http://www.a91.cm/api.php/v1.vod"},
"菜鸟追剧":{"url":"http://81.71.18.95:5555/mogai_api.php/v1.vod"},
"白嫖影视":{"url":"http://zgjxdtg.cn/api.php/v1.vod"},
"初心影视":{"url":"https://www.18mv.club/api.php/v1.vod"},
"独播社":{"url":"http://35ys.cc/api.php/v1.vod"},
"叮当影视":{"url":"https://tv.0573wl.com/api.php/v1.vod"},
"段友影视":{"url":"http://121.204.249.135:4433/ruifenglb_api.php/v1.vod"},
"段友2影视":{"url":"https://shangjihuoke.com/api.php/tv.vod"},
"饭后电影":{"url":"http://baicai.summ.vip/api.php/v1.vod"},
"飞捷影视":{"url":"https://www.fj6080.com/api.php/v1.vod"},
"疯狂看":{"url":"http://app.fkkdy.vip/mogai_api.php/v1.vod"},
"粉象视界":{"url":"http://42.157.129.15:34444/lvdou_api.php/v1.vod"},
"飞云视频":{"url":"http://app.kxtv.ltd/lvdou_api.php/v1.vod"},
"虎猫视频":{"url":"https://humaosp.com/mogai_api.php/v1.vod"},
"可米影视":{"url":"http://www.kmys.vip/api.php/v1.vod"},
"康耀影视":{"url":"http://124.222.126.23:999/mogai_api.php/v1.vod"},
"绿箭影视":{"url":"http://www.69ty.cc/mogai_api.php/v1.vod"},
"零刻影院":{"url":"https://ys.ling00.cn/api.php/v1.vod"},
"懒猫电影":{"url":"http://lanmao.lanmaoymw.cn/ruifenglb_api.php/v1.vod"},
"蓝猫影院":{"url":"http://www.baofu111.top/mogai_api.php/v1.vod"},
"蜜蜂影视":{"url":"http://app.f8tp.com/lvdou_api.php/v1.vod"},
"麻瓜视频":{"url":"http://aliyun.k8aa.com/mogai_api.php/v1.vod"},
"美剧虫":{"url":"https://meijuchong.com/api.php/v1.vod"},
"木子电影":{"url":"http://www.muzidy.top/mogai_api.php/v1.vod"},
"奈非迷":{"url":"https://app.netflixmi.com/api.php/v1.vod"},
"暖光影视":{"url":"https://app.bl210.com/api.php/v1.vod"},
"念念影视":{"url":"https://998.yuanmajs.cn/api.php/v1.vod"},
"柠柚影视":{"url":"http://nu.e4tv.cn/lvdou_api.php/v1.vod"},
"奇怪视频":{"url":"https://giguai.net/api.php/v1.vod"},
"七零动漫":{"url":"https://cf.70yu.cn/mogai_api.php/v1.vod"},
"瑞丰资源":{"url":"https://tv.yjhan.com:4433/api.php/v1.vod"},
"闪光影视":{"url":"http://101.35.128.192/mubai_api.php/m2.vod"},
"思乐影视":{"url":"https://www.huandian.top/ruifenglb_api.php/v1.vod"},
"天诚影视":{"url":"http://tcspvip.cn/api.php/v1.vod"},
"天天影视":{"url":"https://app.daishusc.com/api.php/v1.vod"},
"小白动漫":{"url":"http://121.62.60.222:20222/mogai_api.php/v1.vod"},
"星辰视频":{"url":"https://m.hj0999.com/api.php/v1.vod"},
"兄弟影视":{"url":"http://app.xdys.vip/mogai_api.php/v1.vod"},
"小极影视":{"url":"http://app.8d8q.com/api.php/v1.vod"},
"心鸾影视":{"url":"http://zhiyutv.xyz/api.php/v1.vod"},
"雪人影视":{"url":"https://zy.qd234.cn/mogai_api.php/v1.vod"},
"益达影院":{"url":"http://luobu.yss6080.com/mogai_api.php/v1.vod"},
"雨果影视":{"url":"http://2.yhys63.com/api.php/v1.vod"},
"影视大全":{"url":"http://app.269w.com/api.php/v1.vod"},
"月色影视":{"url":"http://69ty.cc/mogai_api.php/v1.vod"},
"优视影视":{"url":"http://app.ysys.asia/lvdou_api.php/v1.vod"},
"影阅阁":{"url":"http://221.236.18.12:665/api.php/v1.vod"},
"追剧吧":{"url":"http://zhuiju8.vip/api.php/v1.vod"},
"51视频":{"url":"http://51shipin.cc/mogai_api.php/v1.vod"},
"JDODO":{"url":"https://appys.jdodo.xyz/mogai_api.php/v1.vod"},
"QC影视":{"url":"https://www.qcsvip.com/mogai_api.php/v1.vod"},
"U5影视":{"url":"https://appx.uy07.com/api.php/v1.vod"},
"XG影视":{"url":"http://cms.xggm.top/ruifenglb_api.php/v1.vod"},
"yoyo":{"url":"http://jx.wnvod.net/ruifenglb_api.php/v1.vod"},
"阿里影视":{"url":"http://aliys.cn:90/api.php/v1.vod"},
"艾特影视":{"url":"https://www.aitee.cc/api.php/v1.vod"},
"嗷呜影院":{"url":"http://aowu.pro/api.php/v1.vod"},
"爱影视":{"url":"https://www.hzlff.cn/api.php/v1.vod"},
"安云影视":{"url":"http://api.vue8.cc/lvdou_api.php/v1.vod"},
"哔哔影院":{"url":"http://baofu111.top/mogai_api.php/v1.vod"},
"多啦咪PRO":{"url":"http://yuenos-pro.miyuen.cn/qingdoujiekou.php/v1.vod"},
"比邻影视":{"url":"http://0hzy.cn:9990/mogai_api.php/v1.vod"},
"大头影视":{"url":"http://dy.idsao.com/mogai_api.php/v1.vod"},
"灯塔影视":{"url":"https://cc.hwh.ink/lvdou_api.php/v1.vod"},
"豆渣影视":{"url":"http://douzhayss.cc/api.php/v1.vod"},
"恒大影视":{"url":"https://www.hdys.org/api.php/v1.vod"},
"寒枫视频":{"url":"https://vip.shenyunwl.cn/mogai_api.php/v1.vod"},
"辉哥影视":{"url":"https://app.y.hgyule8.com/api.php/v1.vod"},
"黄河影视":{"url":"http://i.ledu8.cn/api.php/v1.vod"},
"火星人":{"url":"https://www.huoxing9.com/mogai_api.php/v1.vod"},
"晗先森":{"url":"https://hantv.top/api.php/v1.vod"},
"盒子影院":{"url":"http://i.nihaohezi.com/api.php/v1.vod"},
"筋斗云":{"url":"https://tv.jindcloud.com/api.php/v1.vod"},
"极光影院":{"url":"http://app.winxz.cc/api.php/v1.vod"},
"聚合视频":{"url":"https://app.jhystv.com/mogai_api.php/v1.vod"},
"久久影视":{"url":"http://s9t9.com/api.php/v1.vod"},
"极酷视频":{"url":"https://jiku.vip/mogai_api.php/v1.vod"},
"剧迷视频":{"url":"http://pan.hzafw.com/api.php/v1.vod"},
"极品影视":{"url":"http://app.yhzy.xyz/lvdou_api.php/v1.vod"},
"橘子影视":{"url":"http://jz.juzidy.vip/mogai_api.php/v1.vod"},
"看剧吧":{"url":"http://app.ishen520.com/api.php/v1.vod"},
"看看剧":{"url":"https://www.kankanju.cn/api.php/v1.vod"},
"可米影视":{"url":"http://sj.kmys.vip/ruifenglb_api.php/v1.vod"},
"绿豆视频":{"url":"https://v.lvdoui.cn/mogai_api.php/v1.vod"},
"蓝光视频":{"url":"http://vip.91iqiyi.com/mogai_api.php/v1.vod"},
"冷视TV":{"url":"https://len.tv/api.php/v1.vod"},
"免费影视":{"url":"http://111.229.120.180:88/lvdou_api.php/v1.vod"},
"美剧范":{"url":"http://ttzmz.net/api.php/v1.vod"},
"喵乐影视":{"url":"http://miaoleys.com/api.php/v1.vod"},
"奈飞中文":{"url":"https://www.naifei.org/api.php/v1.vod"},
"皮皮动漫":{"url":"http://dm.muying.me/mogai_api.php/v1.vod"},
"奇趣影视":{"url":"https://app.qiqu.me/mogai_api.php/v1.vod"},
"任性看":{"url":"https://renxingkan.net/api.php/v1.vod"},
"思奇影视":{"url":"http://app.siqitv.vip/mogai_api.php/v1.vod"},
"三日影院":{"url":"https://www.3ri.net/api.php/v1.vod"},
"神马影视":{"url":"http://xs.78tv.cc/mogai_api.php/v1.vod"},
"视听星球":{"url":"http://zjyapijzys.shynwlkj.com/api.php/v1.vod"},
"淘剧社":{"url":"https://app.shuhai99.com/api.php/v1.vod"},
"天天视频":{"url":"http://app.qianju.cc/api.php/v1.vod"},
"兔子窝":{"url":"http://cj.huimaojia.com:12345/mogai_api.php/v1.vod"},
"我爱跟剧":{"url":"https://www.genmov.com/mogai_api.php/v1.vod"},
"吾爱影视":{"url":"http://app.5lp.net/api.php/v1.vod"},
"蜗牛动漫":{"url":"http://woniudm.woniu.cyou:20000/mogai_api.php/v1.vod"},
"寻常影视":{"url":"http://tv.91ymz.cn/api.php/v1.vod"},
"熊猫动漫":{"url":"http://dongman.k8aa.com/mogai_api.php/v1.vod"},
"熊猫视频":{"url":"http://anegh.com/lvdou_api.php/v1.vod"},
"小鸟动漫":{"url":"http://xydm.baicai.buzz/mogai_api.php/v1.vod"},
"玺娜影视":{"url":"https://pp.wxina.cn/api.php/v1.vod"},
"小蜻蜓":{"url":"http://3ketv.com/mogai_api.php/v1.vod"},
"星球视频":{"url":"http://119.29.121.48:8088/api.php/v1.vod"},
"玺心影视":{"url":"https://tv.arbd.cn/api.php/v1.vod"},
"云城影院":{"url":"https://ayyf.cn/mubai_api.php/m2.vod"},
"月儿影视":{"url":"https://yue52.xyz/api.php/v1.vod"},
"樱花动漫":{"url":"https://www.dmwu.cc/api.php/v1.vod"},
"云梦影视":{"url":"https://yun.yunl.xyz/mogai_api.php/v1.vod"},
"影视大全":{"url":"https://xc.xixi2yy.xyz/mogai_api.php/v1.vod"},
"影视热剧":{"url":"http://lb.26ys.cn/api.php/v1.vod"},
"渔渔影视":{"url":"http://luobo.yugenye.site/api.php/v1.vod"},
"优优影院":{"url":"http://xin.jjsvip.cc/mogai_api.php/v1.vod"},
"柚子视频":{"url":"http://yz.26ys.cn/api.php/v1.vod"},
"鱼仔影视":{"url":"http://yuzaio.top/api.php/v1.vod"},
"追剧吧":{"url":"http://wtv.fit/api.php/v1.vod"},
"追剧达人":{"url":"https://www.zhuijudaren.com/mogai_api.php/v1.vod"},
"追剧猫":{"url":"http://tv.kmtvb.com/api.php/v1.vod"},
"侦探影视":{"url":"http://ys.huangguay.com/mogai_api.php/v1.vod"},
"猪猪影院":{"url":"http://app.2zdyy.com/api.php/v1.vod"},
"2号币":{"url":"http://phoebe.cf/api.php/iptv/vod/"},
"CV影视":{"url":"http://www.cccvvv.top/api.php/iptv/vod/"},
"HG影视":{"url":"http://api.hgyx.vip/api.php/iptv/vod/"},
"傲视影院":{"url":"http://j.zjj.life:88/mv/api.php/Chengcheng/vod/"},
"爱西西TV":{"url":"http://tv2.aixixi.vip/api.php/iptv/vod/"},
"刺桐影视":{"url":"http://tv.cttv.vip/api.php/iptv/vod/"},
"叮当TV":{"url":"http://tv.hyddys.top/api.php/iptv/vod/"},
"嘀哩嘀哩":{"url":"https://api.diliktv.xyz/api.php/Chengcheng/vod/"},
"大师兄":{"url":"http://dsxtv.tv.ci/api.php/dsx/vod/"},
"二货影视":{"url":"http://d.zjj.life:88/mv/api.php/Chengcheng/vod/"},
"非凡影院":{"url":"http://cms.feifan12.xyz/api.php/iptv/vod/"},
"飞扬TV":{"url":"http://diancj.zhenfy.cn/api.php/Chengcheng/vod/"},
"嘿荼锋":{"url":"http://tv.hfys8.vip/api.php/Sntv/vod/"},
"黑龙影视":{"url":"http://vip.ji-ding-he.site/api.php/iptv/vod/"},
"聚多影视":{"url":"http://jdyy.weetai.cn/api.php/iptv/vod/"},
"极品影视":{"url":"http://jpsb.yhzy.xyz/api.php/iptv/vod/"},
"乐酷TV":{"url":"http://103.45.161.138:2021/api.php/Chengcheng/vod/"},
"六维影视":{"url":"http://liuweiiptv.gq:1357/api.php/iptv/vod/"},
"流星雨":{"url":"http://nn.lxyyy.xyz:8/c/api.php/WAiLaowang/vod/"},
"冷月TV":{"url":"https://tv.521x5.com/api.php/iptv/vod/"},
"荔枝影视":{"url":"http://api.zjys.vip/api.php/iptv/vod/"},
"免费看TV":{"url":"http://www.freekan.vip/api.php/iptv/vod/"},
"蜜果TV":{"url":"http://vv.miguotv.net/m/api.php/Chengcheng/vod/"},
"米来影视":{"url":"http://42.51.37.161:2346/api.php/iptv/vod/"},
"米奇TV":{"url":"http://www.s6ep3.top/api.php/iptv/vod/"},
"七科影视":{"url":"http://tv.7kfm.cn/api.php/iptv/vod/"},
"青杏TV":{"url":"http://pp.ddmym.cn/api.php/iptv/vod/"},
"若惜影视":{"url":"http://rxw.ruoxinew.com/api.php/Sntv/vod/"},
"思奇TV":{"url":"http://tv.siqitv.vip/api.php/iptv/vod/"},
"山楂影视":{"url":"http://dy6.dcd1.cn/api.php/iptv/vod/"},
"天空TV":{"url":"http://tv.tkys.tv/api.php/iptv/vod/"},
"虾皮视频":{"url":"http://tv.cmt8.xyz/api.php/iptv/vod/"},
"小极TV":{"url":"http://api.8d8q.com/mmv/api.php/Chengcheng/vod/"},
"小熊猫TV":{"url":"http://tv2.hetaoys.vip/api.php/iptv/vod/"}
  },
  "jx": [
  ["CL4K","http://ts.yjhan.com:8090/api/?key=yNSLsBLOaUkKp2kZ6i&url="],
  ["ltnb","https://ltjx.jeeves.vip/home/api?type=ys&uid=1589472&key=adegnxzBDJKMNOPR59&url="],
  ["duoduozy","http://a.dxzj88.com:80/ddzy/dd.php?url="],
  ["rx","https://fast.rongxingvr.cn:8866/api/?key=CwQXkIXGfaUNGVomez&url="]
  ]
}